<?xml version="1.0" encoding="utf-8"?>
<!-- Generator: Adobe Illustrator 25.0.0, SVG Export Plug-In . SVG Version: 6.00 Build 0)  -->
<svg version="1.1" id="Laag_1" xmlns="http://www.w3.org/2000/svg" xmlns:xlink="http://www.w3.org/1999/xlink" x="0px" y="0px"
	 viewBox="0 0 1080 1080" style="enable-background:new 0 0 1080 1080;" xml:space="preserve">
<style type="text/css">
	.st0{opacity:0.2;fill:none;stroke:#363246;stroke-width:0.5;stroke-miterlimit:10;}
	.st1{opacity:0.25;fill:none;stroke:#363246;stroke-width:0.5;stroke-miterlimit:10;}
	.st2{opacity:0.3;fill:none;stroke:#363246;stroke-width:0.5;stroke-miterlimit:10;}
	.st3{opacity:0.35;fill:none;stroke:#363246;stroke-width:0.5;stroke-miterlimit:10;}
	.st4{opacity:0.4;fill:none;stroke:#363246;stroke-width:0.5;stroke-miterlimit:10;}
	.st5{opacity:0.45;fill:none;stroke:#363246;stroke-width:0.5;stroke-miterlimit:10;}
	.st6{opacity:0.5;fill:none;stroke:#363246;stroke-width:0.5;stroke-miterlimit:10;}
	.st7{opacity:0.55;fill:none;stroke:#363246;stroke-width:0.5;stroke-miterlimit:10;}
	.st8{opacity:0.6;fill:none;stroke:#363246;stroke-width:0.5;stroke-miterlimit:10;}
	.st9{opacity:0.65;fill:none;stroke:#363246;stroke-width:0.5;stroke-miterlimit:10;}
	.st10{opacity:0.7;fill:none;stroke:#363246;stroke-width:0.5;stroke-miterlimit:10;}
	.st11{opacity:0.75;fill:none;stroke:#363246;stroke-width:0.5;stroke-miterlimit:10;}
	.st12{opacity:0.8;fill:none;stroke:#363246;stroke-width:0.5;stroke-miterlimit:10;}
	.st13{opacity:0.85;fill:none;stroke:#363246;stroke-width:0.5;stroke-miterlimit:10;}
	.st14{opacity:0.9;fill:none;stroke:#363246;stroke-width:0.5;stroke-miterlimit:10;}
	.st15{opacity:0.95;fill:none;stroke:#363246;stroke-width:0.5;stroke-miterlimit:10;}
	.st16{fill:none;stroke:#363246;stroke-width:0.5;stroke-miterlimit:10;}
</style>
<path class="st0" d="M344.9,590.4C295.2,463.5-29.8,458.3,20.8,342.6s196.1-82.5,323-132.2S554.9,37.5,670.6,88.1
	s102.6,396,152.3,522.9s287.6,249.3,237,365c-50.6,115.7-280.1-25.9-407,23.8c-126.9,49.7-261.9,43.3-377.6-7.3
	C159.6,941.9,394.6,717.3,344.9,590.4z"/>
<path class="st1" d="M355.1,586.4C306.5,462.4-18.6,460.2,30.9,347s192.9-77.8,316.9-126.4s205.3-172,318.4-122.5
	s97.9,392.7,146.5,516.8c48.6,124.1,286.7,243.5,237.2,356.6c-49.5,113.2-276.9-30.6-400.9,18s-256.1,42.3-369.2-7.2
	S403.7,710.5,355.1,586.4z"/>
<path class="st2" d="M365.3,582.4C317.8,461.2-7.4,462,40.9,351.4s189.6-73,310.9-120.5s199.5-171,310.1-122.7
	S755,497.7,802.5,618.9s285.7,237.7,237.4,348.2c-48.3,110.6-273.6-35.3-394.9,12.2c-121.2,47.5-250.3,41.3-360.8-7
	S412.8,703.7,365.3,582.4z"/>
<path class="st3" d="M375.5,578.4C329.1,460,3.7,463.8,51,355.8s186.4-68.3,304.8-114.7S549.5,71,657.5,118.2
	s88.4,386.3,134.8,504.7c46.4,118.4,284.7,231.8,237.5,339.8c-47.2,108-270.4-40-388.8,6.3s-244.4,40.4-352.5-6.8
	S421.9,696.9,375.5,578.4z"/>
<path class="st4" d="M385.7,574.4C340.5,458.8,14.9,465.6,61,360.2s183.2-63.6,298.8-108.9s187.8-169.1,293.3-123
	s83.7,383.1,129,498.7s283.8,226,237.7,331.4c-46.1,105.4-267.2-44.8-382.8,0.5s-238.6,39.4-344.1-6.7S431,690,385.7,574.4z"/>
<path class="st5" d="M396,570.4c-44.2-112.8-369.9-103-324.9-205.9s180-58.9,292.7-103.1s182-168.1,284.9-123.2
	s79,379.8,123.2,492.6C816,743.7,1054.7,851.1,1009.7,954c-45,102.9-264-49.5-376.7-5.3c-112.8,44.2-232.8,38.5-335.7-6.5
	C194.4,897.2,440.1,683.2,396,570.4z"/>
<path class="st6" d="M406.2,566.4C363.1,456.5,37.3,469.3,81.1,369s176.7-54.2,286.7-97.3S544,104.5,644.3,148.4
	S718.6,525,761.7,634.9s281.9,214.4,238,314.7S738.9,895.4,629,938.5s-227,37.5-327.3-6.3S449.2,676.4,406.2,566.4z"/>
<path class="st7" d="M416.4,562.4c-42-107.1-367.9-91.4-325.2-189.1s173.5-49.5,280.7-91.4s170.4-166.2,268.1-123.5
	s69.6,373.4,111.6,480.5s280.9,208.6,238.2,306.3S732.1,886.3,625,928.3c-107.1,42-221.2,36.5-318.9-6.2
	C208.4,879.4,458.3,669.6,416.4,562.4z"/>
<path class="st8" d="M426.6,558.4c-40.9-104.3-367-85.5-325.4-180.7s170.3-44.8,274.6-85.6s164.6-165.3,259.7-123.7
	s64.9,370.1,105.7,474.5c40.9,104.3,279.9,202.7,238.3,297.9C938,1036,725.3,877.2,621,918.1s-215.3,35.6-310.5-6
	C215.3,870.5,467.5,662.8,426.6,558.4z"/>
<path class="st9" d="M436.8,554.4c-39.8-101.5-366-79.7-325.6-172.3s167-40,268.6-79.8S538.5,138,631.1,178.5s60.2,366.9,99.9,468.4
	s279,196.9,238.5,289.5c-40.5,92.6-251-68.3-352.5-28.6c-101.5,39.8-209.5,34.6-302.1-5.9C222.3,861.5,476.6,655.9,436.8,554.4z"/>
<path class="st10" d="M447,550.4C408.4,451.7,82,476.5,121.3,386.5s163.8-35.3,262.5-74s152.9-163.3,242.9-124
	s55.4,363.7,94.1,462.4c38.7,98.7,278,191.1,238.7,281.1c-39.3,90-247.8-73-346.5-34.4c-98.7,38.7-203.7,33.7-293.7-5.7
	C229.3,852.6,485.7,649.1,447,550.4z"/>
<path class="st11" d="M457.2,546.4c-37.6-95.9-364.1-68.1-325.9-155.5s160.6-30.6,256.5-68.2s147.1-162.4,234.5-124.2
	s50.7,360.5,88.3,456.3s277,185.3,238.8,272.7S704.8,849.9,609,887.4s-197.9,32.7-285.3-5.5S494.8,642.3,457.2,546.4z"/>
<path class="st12" d="M467.4,542.4c-36.4-93.1-363.1-62.3-326-147.1s157.4-25.9,250.4-62.3s141.3-161.4,226.1-124.3
	s46,357.2,82.5,450.3c36.4,93.1,276.1,179.5,239,264.3c-37.1,84.9-241.4-82.5-334.4-46c-93.1,36.4-192.1,31.7-276.9-5.4
	C243.2,834.8,503.9,635.5,467.4,542.4z"/>
<path class="st13" d="M477.6,538.4c-35.3-90.2-362.2-56.4-326.2-138.7s154.1-21.2,244.4-56.5s135.5-160.4,217.7-124.5
	s41.3,354,76.6,444.2c35.3,90.2,275.1,173.6,239.2,255.9S691.2,831.7,601,867c-90.2,35.3-186.2,30.8-268.5-5.2
	S513,628.7,477.6,538.4z"/>
<path class="st14" d="M487.9,534.4c-34.2-87.4-361.2-50.6-326.4-130.3s150.9-16.5,238.3-50.7s129.6-159.5,209.4-124.6
	s36.6,350.8,70.8,438.2s274.2,167.8,239.3,247.5S684.4,822.6,597,856.8c-87.4,34.2-180.4,29.8-260.1-5S522.1,621.8,487.9,534.4z"/>
<path class="st15" d="M498.1,530.4c-33.1-84.6-360.2-44.8-326.5-121.9s147.7-11.8,232.3-44.9s123.8-158.5,201-124.8
	s31.9,347.5,65,432.1c33.1,84.6,273.2,162,239.5,239.1S677.6,813.5,593,846.6s-174.6,28.8-251.8-4.9S531.2,615,498.1,530.4z"/>
<path class="st16" d="M508.3,526.4c-32-81.8-359.3-39-326.7-113.6s144.4-7,226.2-39.1s118-157.6,192.6-125s27.2,344.3,59.2,426.1
	s272.2,156.2,239.6,230.7S670.8,804.4,589,836.4s-168.8,27.9-243.4-4.7S540.3,608.2,508.3,526.4z"/>
<path class="st16" d="M518.5,522.4c-30.9-79-358.3-33.2-326.9-105.2S332.8,415,411.8,384S524,227.4,596,258.9s22.4,341.1,53.4,420
	c30.9,79,271.3,150.4,239.8,222.4c-31.5,72-225.2-106-304.2-75.1c-79,30.9-163,26.9-235-4.6S549.4,601.4,518.5,522.4z"/>
<path class="st16" d="M528.7,518.4c-29.8-76.1-357.4-27.3-327-96.8s138,2.4,214.1-27.4c76.1-29.8,106.3-155.6,175.8-125.3
	s17.7,337.8,47.5,414s270.3,144.5,240,214S657.1,786.1,581,816c-76.1,29.8-157.1,26-226.6-4.4S558.5,594.6,528.7,518.4z"/>
<path class="st16" d="M538.9,514.4c-28.7-73.3-356.4-21.5-327.2-88.4s134.8,7.1,208.1-21.6S520.3,249.8,587.2,279
	c66.9,29.2,13,334.6,41.7,407.9S898.3,825.6,869,892.5C839.8,959.4,650.3,777,577,805.7s-151.3,25-218.2-4.2
	S567.6,587.8,538.9,514.4z"/>
<path class="st16" d="M549.1,510.4c-27.6-70.5-355.4-15.7-327.3-80s131.5,11.8,202-15.8s94.7-153.7,159-125.6s8.3,331.4,35.9,401.9
	c27.6,70.5,268.4,132.9,240.3,197.2c-28.1,64.3-215.5-120.2-286-92.6c-70.5,27.6-145.5,24-209.8-4.1S576.7,580.9,549.1,510.4z"/>
</svg>
